Excersize 4
…
We removed the chatter category because everyone chatters now and then. Instead, we look at the likelihood of people to talk about a topic based on talking about another. The visualization above creates groups based on peoples likely topics of conversation. Though most of these seem intuitive, the clear topic groupings.

The size of each node represents the amount of times it appeared in the data, meaning a higher share of the audience consistently talked about the topic. From this we see multiple clear segments;

An outdoorsy, personal health and fitness type consumer, likely to be marketed to via signage and retail placement.

An online gaming college student consumer, likely to be marketed to on Twitch and other gaming-oriented social media sites.

A beauty, cooking, fashion, and photo sharing consumer, likely marketed to on Instagram.

Politics, news, travel, and automotive interested consumer, likely marketed to on Facebook and Twitter.

The food, religion, parenting consumer, who may be more difficult to reach in a measured way due to the low relative concentration on any particular digital media. Grocery stores and traditional media would be likely places to build your brand.

## # A tibble: 190 x 2
## # Groups:   cluster [5]
##    cluster `colSums(sm1)`
##      <int>          <dbl>
##  1       1          34671
##  2       1          12030
##  3       1          12493
##  4       1          21256
##  5       1           6408
##  6       1           8436
##  7       1          12564
##  8       1          14098
##  9       1          11015
## 10       1           6809
## # ... with 180 more rows
…
